<?xml version="1.0" encoding="UTF-8"?>
<svg width="329px" height="329px" viewBox="0 0 329 329" version="1.1" xmlns="http://www.w3.org/2000/svg" xmlns:xlink="http://www.w3.org/1999/xlink">
    <!-- Generator: Sketch 52.6 (67491) - http://www.bohemiancoding.com/sketch -->
    <title>Group 2 Copy 3</title>
    <desc>Created with Sketch.</desc>
    <g id="Page-1" stroke="none" stroke-width="1" fill="none" fill-rule="evenodd" opacity="0.157482329" stroke-linecap="round" stroke-linejoin="round">
        <g id="Početna---slika" transform="translate(-55.000000, -4178.000000)" stroke="#FFFFFF" stroke-width="2">
            <g id="Group-26-Copy" transform="translate(-17.000000, 4150.000000)">
                <g id="Group-2-Copy-3">
                    <g transform="translate(14.000000, -30.000000)">
                        <path d="M155.922738,371.62521 C73.7718105,334.645149 37.1567907,238.070814 74.138644,155.923469 C111.116901,73.7725281 207.691218,37.157502 289.840347,74.1375635 C371.987678,111.119423 408.606294,207.691959 371.624441,289.841102 C334.644386,371.988447 238.071866,408.605272 155.922738,371.62521 Z" id="Stroke-1" transform="translate(222.881265, 222.881265) rotate(-150.000000) translate(-222.881265, -222.881265) "></path>
                        <path d="M170.778418,338.622641 C106.855923,309.847443 78.3649693,234.699113 107.140167,170.778418 C135.915364,106.855923 211.061895,78.3649693 274.984389,107.140167 C338.905085,135.915364 367.397838,211.061895 338.622641,274.984389 C309.847443,338.905085 234.700912,367.397838 170.778418,338.622641 Z" id="Stroke-3" transform="translate(222.881265, 222.881265) rotate(-150.000000) translate(-222.881265, -222.881265) "></path>
                        <path d="M185.634847,305.619871 C139.939242,285.049653 119.57247,231.331228 140.142694,185.633836 C160.712918,139.940046 214.431361,119.57148 260.126966,140.143498 C305.822571,160.713715 326.189343,214.432141 305.62092,260.125931 C285.050695,305.823323 231.330452,326.190089 185.634847,305.619871 Z" id="Stroke-5" transform="translate(222.881265, 222.881265) rotate(-150.000000) translate(-222.881265, -222.881265) "></path>
                        <path d="M71.7162405,257.36774 C67.5652406,255.498739 64.4645586,252.259856 62.7014609,248.424903 C60.5972344,243.839478 60.4087158,238.401242 62.6440077,233.438785 C66.7447359,224.325387 77.4597736,220.26242 86.5733009,224.364885 C95.6886237,228.467351 99.7480573,239.180442 95.6455337,248.29384 C91.5448055,257.407238 80.8297678,261.470205 71.7162405,257.36774 Z" id="Stroke-7" transform="translate(79.144717, 240.866313) rotate(-150.000000) translate(-79.144717, -240.866313) "></path>
                        <path d="M143.633725,248.934558 C134.782068,244.293166 131.367088,233.35492 136.008372,224.504853 C140.647861,215.651194 151.585852,212.23793 160.437509,216.877527 C169.290962,221.517124 172.704146,232.45537 168.064657,241.307233 C163.423372,250.160892 152.487177,253.574156 143.633725,248.934558 Z" id="Stroke-11" transform="translate(152.036093, 232.906043) rotate(-150.000000) translate(-152.036093, -232.906043) "></path>
                        <path d="M210.444616,206.758293 C201.331288,202.655775 197.268352,191.942548 201.370786,182.829034 C205.47322,173.71552 216.186229,169.654297 225.299557,173.755019 C234.414681,177.857537 238.475821,188.572559 234.373387,197.686073 C230.270953,206.799587 219.557945,210.86081 210.444616,206.758293 Z" id="Stroke-13" transform="translate(217.872225, 190.257196) rotate(-150.000000) translate(-217.872225, -190.257196) "></path>
                        <path d="M301.128065,123.112401 C292.014737,119.009852 287.951801,108.296543 292.054235,99.1829594 C296.156669,90.0693754 306.871473,86.0081211 315.983006,90.1088748 C325.09813,94.2114239 329.15927,104.926528 325.056836,114.040112 C320.954402,123.151901 310.241394,127.21495 301.128065,123.112401 Z" id="Stroke-15" transform="translate(308.555674, 106.611040) rotate(-150.000000) translate(-308.555674, -106.611040) "></path>
                        <path d="M202.387696,274.89127 C175.047547,262.585651 162.860463,230.442745 175.169634,203.104308 C187.477009,175.76228 219.618022,163.576953 246.956375,175.882571 C274.298319,188.19178 286.483609,220.331096 274.176233,247.673124 C261.868857,275.011561 229.72964,287.198683 202.387696,274.89127 Z" id="Stroke-17" transform="translate(224.672531, 225.387339) rotate(-150.000000) translate(-224.672531, -225.387339) "></path>
                        <path d="M217.244922,241.8887 C208.131594,237.786151 204.068658,227.072842 208.171092,217.959258 C212.273526,208.845674 222.986535,204.78442 232.099863,208.885174 C241.214987,212.987723 245.276127,223.702827 241.173693,232.816411 C237.071259,241.9282 226.356455,245.991249 217.244922,241.8887 Z" id="Stroke-21" transform="translate(224.672531, 225.387339) rotate(-150.000000) translate(-224.672531, -225.387339) "></path>
                        <path d="M211.697466,166.632069 C183.971465,154.15138 171.614668,121.557526 184.09541,93.831643 C196.576152,66.1075568 229.170145,53.7490163 256.89435,66.2297051 C284.620351,78.7121902 296.978944,111.304248 284.496406,139.030131 C272.015664,166.754217 239.423467,179.112757 211.697466,166.632069 Z" id="Stroke-19" transform="translate(234.296294, 116.430887) rotate(-150.000000) translate(-234.296294, -116.430887) "></path>
                        <path d="M227.285247,131.70093 C218.171918,127.598465 214.108983,116.885374 218.211417,107.771976 C222.313851,98.6585776 233.026859,94.5956106 242.140188,98.6980762 C251.255312,102.800542 255.316452,113.515428 251.214018,122.627031 C247.111584,131.740429 236.39678,135.803396 227.285247,131.70093 Z" id="Stroke-9" transform="translate(234.712856, 115.199503) rotate(-150.000000) translate(-234.712856, -115.199503) "></path>
                    </g>
                </g>
            </g>
        </g>
    </g>
</svg>