<svg width="100" height="100" viewBox="0 0 100 100" fill="none" xmlns="http://www.w3.org/2000/svg">
<rect width="100" height="100" rx="50" fill="white"/>
<rect x="5" y="5" width="90" height="90" rx="45" stroke="#85C226" stroke-linecap="round" stroke-linejoin="round" stroke-dasharray="2 4"/>
<path d="M80.9017 69.1434C84.3042 63.5238 86.1491 57.0996 86.2469 50.531C86.3447 43.9623 84.6918 37.486 81.4582 31.7676C78.2245 26.0492 73.5267 21.2948 67.8473 17.993C62.168 14.6912 55.712 12.9611 49.1426 12.9803C42.5732 12.9996 36.1275 14.7675 30.4676 18.1025C24.8077 21.4375 20.1377 26.2193 16.9376 31.9566C13.7375 37.6939 12.1227 44.1797 12.2589 50.7477C12.3952 57.3156 14.2777 63.7289 17.713 69.3285" stroke="#209350"/>
<path d="M59.3266 56.6316L53.345 59.594C53.1341 58.7101 52.4683 57.9579 51.536 57.6817L48.7664 56.8607C46.7696 56.267 44.1416 55.7794 41.5233 57.2894C41.3572 57.3847 41.2084 57.48 41.0771 57.5642C40.5793 57.8832 40.2748 58.0772 39.4053 58.0827C39.1262 57.3954 38.4515 56.9093 37.6649 56.9093H34.8271C33.7916 56.9093 32.9492 57.7513 32.9492 58.7863V65.3692C32.9492 66.4042 33.7916 67.2462 34.8271 67.2462H37.665C38.6592 67.2462 39.4749 66.4699 39.5383 65.4919C40.7136 65.5081 41.4837 65.5969 43.0784 66.0656C43.9555 66.3238 47.7044 67.4143 47.9898 67.4971C48.9318 67.7703 49.7236 68 50.5489 67.9999C51.4808 67.9999 52.4553 67.7069 53.7365 66.8531C53.7425 66.8491 53.7484 66.845 53.7542 66.8408L61.9904 60.9797C63.1591 60.1495 63.4991 58.6504 62.7817 57.4938C62.0767 56.3532 60.624 55.9905 59.3266 56.6316ZM38.1365 65.3692C38.1365 65.6288 37.925 65.84 37.6649 65.84H34.8271C34.567 65.84 34.3555 65.6288 34.3555 65.3692V58.7863C34.3555 58.5267 34.567 58.3155 34.8271 58.3155H37.665C37.925 58.3155 38.1366 58.5267 38.1366 58.7863V65.3692H38.1365ZM61.1755 59.8338L52.9476 65.689C51.0823 66.9299 50.2903 66.7002 48.3815 66.1466C48.0924 66.0628 44.3517 64.9747 43.4754 64.7166C41.7656 64.2141 40.9209 64.1065 39.5428 64.0865V59.4869C40.7324 59.4548 41.2932 59.0959 41.8359 58.7482C41.9592 58.6691 42.0867 58.5874 42.2244 58.5085C43.9291 57.5253 45.7657 57.4356 48.3663 58.2088L51.1365 59.0299C51.7774 59.2198 52.1476 59.8929 51.962 60.5309C51.9616 60.532 51.9614 60.533 51.961 60.534C51.7737 61.1722 51.0991 61.5396 50.457 61.3536L46.4961 60.2056C46.123 60.0975 45.7331 60.3122 45.6251 60.6852C45.5169 61.0581 45.7317 61.4482 46.1047 61.5562L50.0655 62.7042C51.3447 63.0749 52.6841 62.424 53.2 61.235L59.9501 57.8919C60.4922 57.6239 61.2281 57.6551 61.586 58.234C61.9071 58.7517 61.7308 59.4393 61.1755 59.8338Z" fill="#209350"/>
<path d="M47.1767 48.1035L50.0884 50.9117C50.2247 51.043 50.4006 51.1087 50.5766 51.1087C50.7525 51.1087 50.9285 51.043 51.0647 50.9117L53.9764 48.1035C53.9824 48.0977 53.9885 48.0916 53.9943 48.0856C55.0553 46.9856 55.0553 45.1958 53.9935 44.0951C53.1123 43.1841 51.619 43.152 50.5756 43.9908C49.5328 43.1512 48.0393 43.1832 47.1593 44.0953C46.0953 45.1956 46.0953 46.9859 47.1593 48.0862C47.1651 48.092 47.1708 48.0978 47.1767 48.1035ZM48.1709 45.0721C48.614 44.6128 49.3468 44.7568 49.7716 45.1535L49.7994 45.1795C50.0085 45.3752 50.2247 45.5776 50.5763 45.5776C50.9292 45.5776 51.145 45.3745 51.3536 45.1781L51.3796 45.1536C51.8046 44.7568 52.5383 44.6132 52.9823 45.0721C53.5122 45.6215 53.5148 46.548 52.9901 47.1011L50.5766 49.4288L48.1627 47.1008C47.6275 46.5388 47.6301 45.6314 48.1709 45.0721Z" fill="#209350"/>
<path d="M34.8027 47.9478H38.6059C38.9943 47.9478 39.3091 47.633 39.3091 47.2447C39.3091 46.8564 38.9943 46.5416 38.6059 46.5416H34.8027C34.4144 46.5416 34.0996 46.8564 34.0996 47.2447C34.0996 47.633 34.4144 47.9478 34.8027 47.9478Z" fill="#209350"/>
<path d="M35.0003 43.2048L38.299 44.8152C38.3983 44.8637 38.5035 44.8866 38.607 44.8866C38.8673 44.8866 39.1174 44.7415 39.2393 44.4918C39.4097 44.1429 39.2649 43.7219 38.916 43.5516L35.6173 41.9412C35.2682 41.7708 34.8473 41.9156 34.6769 42.2646C34.5065 42.6135 34.6513 43.0345 35.0003 43.2048Z" fill="#209350"/>
<path d="M38.299 49.6741L35.0003 51.2845C34.6513 51.4549 34.5065 51.8758 34.6769 52.2248C34.7988 52.4745 35.0489 52.6196 35.3093 52.6196C35.4128 52.6196 35.518 52.5966 35.6173 52.5481L38.916 50.9378C39.2649 50.7674 39.4097 50.3465 39.2393 49.9975C39.0689 49.6485 38.6479 49.5037 38.299 49.6741Z" fill="#209350"/>
<path d="M66.3481 46.5416H62.5449C62.1567 46.5416 61.8418 46.8564 61.8418 47.2447C61.8418 47.633 62.1567 47.9478 62.5449 47.9478H66.3481C66.7364 47.9478 67.0513 47.633 67.0513 47.2447C67.0513 46.8564 66.7365 46.5416 66.3481 46.5416Z" fill="#209350"/>
<path d="M62.5456 44.8866C62.6492 44.8866 62.7544 44.8637 62.8537 44.8151L66.1504 43.2048C66.4993 43.0343 66.644 42.6133 66.4736 42.2644C66.3031 41.9155 65.8823 41.7708 65.5331 41.9413L62.2365 43.5516C61.8876 43.7221 61.7429 44.1431 61.9133 44.492C62.0352 44.7415 62.2853 44.8866 62.5456 44.8866Z" fill="#209350"/>
<path d="M66.1504 51.2846L62.8537 49.6742C62.5046 49.5038 62.0837 49.6485 61.9133 49.9974C61.7429 50.3463 61.8876 50.7673 62.2365 50.9377L65.5331 52.5481C65.6325 52.5966 65.7377 52.6196 65.8412 52.6196C66.1015 52.6196 66.3516 52.4745 66.4736 52.2249C66.6439 51.876 66.4993 51.455 66.1504 51.2846Z" fill="#209350"/>
<path d="M41.6832 41.6713V51.9541C41.6832 53.2847 42.7662 54.3672 44.0975 54.3672H57.0527C58.3829 54.3672 59.465 53.2847 59.465 51.9541V41.6716C60.5277 41.4771 61.3357 40.5454 61.3357 39.428V38.4295C61.3357 37.1714 60.3117 36.1479 59.053 36.1479H57.5966C57.7634 35.526 57.7207 34.8545 57.4557 34.1958C56.9812 33.0159 55.8907 32.1398 54.7421 32.0158C53.7023 31.9037 52.7552 32.3916 52.0755 33.3907L50.5747 35.6001L49.0724 33.3906C48.3938 32.392 47.4476 31.904 46.4077 32.0157C45.2586 32.1393 44.1676 33.0154 43.6927 34.1958C43.4277 34.8546 43.3849 35.526 43.5516 36.1479H42.0971C40.8384 36.1479 39.8145 37.1713 39.8145 38.4294V39.4279C39.8145 40.5447 40.6216 41.476 41.6832 41.6713ZM53.2387 34.1812C53.6227 33.6167 54.0783 33.3583 54.5913 33.4139C55.228 33.4826 55.8694 34.0199 56.1511 34.7204C56.2743 35.0267 56.4091 35.586 56.0878 36.1479H51.9028L53.2387 34.1812ZM44.9975 34.7207C45.2795 34.0198 45.9213 33.4824 46.5583 33.4138C47.0713 33.3584 47.5261 33.6168 47.9097 34.1811L49.2469 36.1479H45.0607C44.7394 35.5861 44.8743 35.0269 44.9975 34.7207ZM41.2208 38.4295C41.2208 37.9468 41.6139 37.5542 42.0971 37.5542H59.0531C59.5363 37.5542 59.9295 37.9469 59.9295 38.4295V39.428C59.9295 39.9107 59.5363 40.3033 59.0531 40.3033H50.5751C50.1869 40.3033 49.872 40.6181 49.872 41.0065C49.872 41.3948 50.1869 41.7096 50.5751 41.7096H58.0589V51.9542C58.0589 52.5094 57.6075 52.9611 57.0528 52.9611H44.0975C43.5417 52.9611 43.0895 52.5094 43.0895 51.9542V41.7096H44.1534C44.5418 41.7096 44.8566 41.3948 44.8566 41.0065C44.8566 40.6181 44.5418 40.3033 44.1534 40.3033H42.0972C41.614 40.3033 41.2208 39.9106 41.2208 39.428V38.4295H41.2208Z" fill="#209350"/>
<path d="M47.3135 41.7096C47.7018 41.7096 48.0166 41.3948 48.0166 41.0065C48.0166 40.6181 47.7018 40.3033 47.3135 40.3033H47.3115C46.9232 40.3033 46.6094 40.6181 46.6094 41.0065C46.6093 41.3948 46.9251 41.7096 47.3135 41.7096Z" fill="#209350"/>
<path d="M23.4185 69.171L25.396 70.8425C25.9094 71.2765 26.2747 71.7638 26.492 72.3043C26.7131 72.8402 26.776 73.385 26.6806 73.9388C26.5891 74.488 26.3439 74.9985 25.9451 75.4704C25.5463 75.9422 25.0818 76.2712 24.5516 76.4575C24.0253 76.6392 23.4776 76.6679 22.9084 76.5437C22.3432 76.4149 21.8039 76.1335 21.2904 75.6994L19.313 74.0279L23.4185 69.171ZM21.6381 75.2319C22.0636 75.5916 22.5064 75.8231 22.9663 75.9264C23.4301 76.025 23.8751 76.0006 24.3011 75.8532C24.731 75.7011 25.1102 75.4308 25.4386 75.0422C25.7671 74.6537 25.9685 74.2371 26.043 73.7925C26.1214 73.3432 26.0713 72.9004 25.8929 72.4641C25.7184 72.0232 25.4184 71.6228 24.9928 71.2631L23.5566 70.0491L20.2018 74.0179L21.6381 75.2319Z" fill="#209350"/>
<path d="M31.1878 82.1318C30.6152 81.8693 30.1529 81.5041 29.801 81.0363C29.4571 80.5655 29.2553 80.0466 29.1954 79.4795C29.1411 78.9149 29.2414 78.3545 29.4963 77.7984C29.7512 77.2423 30.1103 76.8006 30.5735 76.4733C31.0422 76.1484 31.5659 75.9654 32.1445 75.9241C32.7311 75.8799 33.3107 75.989 33.8833 76.2515C34.4559 76.514 34.9127 76.8766 35.2536 77.3394C35.6 77.8047 35.8018 78.3236 35.8591 78.8962C35.919 79.4634 35.8214 80.025 35.5665 80.5811C35.3116 81.1372 34.9485 81.5804 34.4773 81.9107C34.0086 82.2355 33.4849 82.4186 32.9063 82.4598C32.3332 82.5036 31.7604 82.3943 31.1878 82.1318ZM31.4376 81.5867C31.8946 81.7962 32.3542 81.8836 32.8165 81.849C33.2813 81.8089 33.7016 81.6551 34.0774 81.3876C34.4558 81.1146 34.7484 80.7524 34.9554 80.3009C35.1623 79.8494 35.2445 79.394 35.2018 78.9347C35.1617 78.4699 35.0039 78.0511 34.7284 77.6783C34.4554 77.3 34.0904 77.0061 33.6334 76.7966C33.1765 76.5871 32.7128 76.5012 32.2425 76.5388C31.7802 76.5734 31.3572 76.7259 30.9733 76.9964C30.5975 77.2638 30.3062 77.6233 30.0992 78.0748C29.8922 78.5263 29.8088 78.9844 29.8489 79.4492C29.8971 79.911 30.0576 80.3311 30.3306 80.7094C30.6116 81.0848 30.9806 81.3772 31.4376 81.5867Z" fill="#209350"/>
<path d="M46.5322 79.8212L45.5322 86.1017L44.9849 86.0145L41.7588 80.2755L40.9474 85.3717L40.2835 85.266L41.2834 78.9855L41.8307 79.0726L45.0658 84.8131L45.8772 79.7169L46.5322 79.8212Z" fill="#209350"/>
<path d="M51.4622 79.8614L52.1336 79.826L52.4682 86.1769L51.7968 86.2122L51.4622 79.8614Z" fill="#209350"/>
<path d="M62.98 84.3295L61.0587 82.717C60.905 82.7757 60.7432 82.8272 60.5732 82.8714L58.9201 83.3012L59.4277 85.2532L58.777 85.4224L57.1766 79.2674L59.4803 78.6684C60.2658 78.4642 60.9301 78.4917 61.4731 78.751C62.0162 79.0103 62.3731 79.4683 62.5438 80.1248C62.6687 80.6055 62.6516 81.0449 62.4923 81.443C62.3373 81.8338 62.0532 82.1611 61.6399 82.425L63.6922 84.1443L62.98 84.3295ZM60.4115 82.322C61.0212 82.1635 61.4521 81.9075 61.7044 81.554C61.9567 81.2005 62.0196 80.7805 61.8931 80.294C61.7635 79.7957 61.5033 79.4566 61.1123 79.2767C60.7198 79.0909 60.2187 79.0772 59.609 79.2357L57.9736 79.661L58.7761 82.7472L60.4115 82.322Z" fill="#209350"/>
<path d="M71.7453 78.5706L68.6359 80.2693L68.7806 82.1261L68.1667 82.4615L67.6691 75.4866L68.2511 75.1686L73.8515 79.3559L73.2296 79.6956L71.7453 78.5706ZM71.2687 78.2098L68.2915 75.9437L68.5898 79.6733L71.2687 78.2098Z" fill="#209350"/>
<path d="M78.7034 75.7019C78.4321 75.9437 78.1288 76.1086 77.7934 76.1966C77.4581 76.2846 77.1213 76.2846 76.7832 76.1965L76.7793 75.5914C77.3881 75.7465 77.9028 75.6366 78.3232 75.2618C78.911 74.7378 78.8945 74.1277 78.2739 73.4315L75.7105 70.556L73.9744 72.1037L73.5875 71.6696L75.8187 69.6807L78.7508 72.9698C79.1941 73.4671 79.4111 73.9472 79.4017 74.4099C79.3928 74.8641 79.16 75.2948 78.7034 75.7019Z" fill="#209350"/>
</svg>
