<?xml version="1.0" encoding="UTF-8"?>
<svg width="15px" height="12px" viewBox="0 0 15 12" version="1.1" xmlns="http://www.w3.org/2000/svg" xmlns:xlink="http://www.w3.org/1999/xlink">
    <!-- Generator: Sketch 52.6 (67491) - http://www.bohemiancoding.com/sketch -->
    <title>Shape</title>
    <desc>Created with Sketch.</desc>
    <g id="Page-1" stroke="none" stroke-width="1" fill="none" fill-rule="evenodd">
        <g id="Kontakt" transform="translate(-420.000000, -342.000000)" fill="#FFFFFF" fill-rule="nonzero">
            <g id="Group-7" transform="translate(52.000000, 82.000000)">
                <g id="Group-6" transform="translate(0.000000, 125.000000)">
                    <g id="24px" transform="translate(367.500000, 133.000000)">
                        <path d="M13.3333333,2.66666667 L2.66666667,2.66666667 C1.93333333,2.66666667 1.34,3.26666667 1.34,4 L1.33333333,12 C1.33333333,12.7333333 1.93333333,13.3333333 2.66666667,13.3333333 L13.3333333,13.3333333 C14.0666667,13.3333333 14.6666667,12.7333333 14.6666667,12 L14.6666667,4 C14.6666667,3.26666667 14.0666667,2.66666667 13.3333333,2.66666667 Z M13.3333333,12 L2.66666667,12 L2.66666667,5.33333333 L8,8.66666667 L13.3333333,5.33333333 L13.3333333,12 Z M8,7.33333333 L2.66666667,4 L13.3333333,4 L8,7.33333333 Z" id="Shape"></path>
                    </g>
                </g>
            </g>
        </g>
    </g>
</svg>